digraph modules {

  calibrate [shape=box, label="Kalibrace"];
  kamenak   [shape=box, label="Kameňák"];

  config    [shape=oval, label="config"];
  detect    [shape=oval, label="detect"];
  gui       [shape=oval, label="user interface"];
  loop      [shape=oval, label="mainloop"];
  math      [shape=oval, label="math"];
  move      [shape=oval, label="move"];
  pid       [shape=oval, label="pid"];
  sensor    [shape=oval, label="sensor"];
  time      [shape=oval, label="time"];


  calibrate -> sensor;

  kamenak -> gui;
  kamenak -> loop;

  loop    -> sensor;
  loop    -> detect;
  loop    -> pid;
  loop    -> time;
  loop    -> math;
  loop    -> move;
  loop    -> gui;

  sensor  -> config;

  detect  -> time;
  detect  -> config;
  detect  -> math;

  pid     -> time;

  move    -> config;
  move    -> math;
}
